\relax 
\providecommand\hyper@newdestlabel[2]{}
\citation{jatmiko}
\citation{jatmiko}
\citation{jatmiko}
\@writefile{toc}{\contentsline {chapter}{\numberline {1}\uppercase {Pendahuluan}}{1}{chapter.1}}
\@writefile{lof}{\addvspace {10\p@ }}
\@writefile{lot}{\addvspace {10\p@ }}
\@writefile{toc}{\contentsline {section}{\numberline {1.1}Latar Belakang}{1}{section.1.1}}
\citation{proofread.tool}
\@writefile{toc}{\contentsline {section}{\numberline {1.2}Pertanyaan Penelitian}{3}{section.1.2}}
\@writefile{toc}{\contentsline {section}{\numberline {1.3}Tujuan dan Manfaat Penelitian}{3}{section.1.3}}
\@writefile{toc}{\contentsline {section}{\numberline {1.4}Ruang Lingkup Penelitian}{3}{section.1.4}}
\@writefile{toc}{\contentsline {section}{\numberline {1.5}Sistematika Penulisan}{4}{section.1.5}}
\@setckpt{bab1}{
\setcounter{page}{5}
\setcounter{equation}{0}
\setcounter{enumi}{3}
\setcounter{enumii}{0}
\setcounter{enumiii}{0}
\setcounter{enumiv}{0}
\setcounter{footnote}{0}
\setcounter{mpfootnote}{0}
\setcounter{part}{0}
\setcounter{chapter}{1}
\setcounter{section}{5}
\setcounter{subsection}{0}
\setcounter{subsubsection}{0}
\setcounter{paragraph}{0}
\setcounter{subparagraph}{0}
\setcounter{figure}{0}
\setcounter{table}{0}
\setcounter{Item}{13}
\setcounter{Hfootnote}{0}
\setcounter{bookmark@seq@number}{16}
\setcounter{ContinuedFloat}{0}
\setcounter{parentequation}{0}
\setcounter{AM@survey}{0}
\setcounter{float@type}{8}
\setcounter{lstnumber}{1}
\setcounter{section@level}{1}
\setcounter{lstlisting}{0}
}
