\relax 
\providecommand\hyper@newdestlabel[2]{}
\citation{jatmiko}
\citation{jatmiko}
\citation{jatmiko}
\citation{merriam}
\@writefile{toc}{\contentsline {chapter}{\numberline {2}\uppercase {Landasan Teori}}{5}{chapter.2}}
\@writefile{lof}{\addvspace {10\p@ }}
\@writefile{lot}{\addvspace {10\p@ }}
\@writefile{toc}{\contentsline {section}{\numberline {2.1}Artikel Ilmiah}{5}{section.2.1}}
\@writefile{toc}{\contentsline {section}{\numberline {2.2}{\textit  {Proofread}}}{5}{section.2.2}}
\citation{indurkhya}
\citation{proofread.tool}
\citation{proofread.buscail}
\citation{proofread.anisimov}
\citation{salah}
\@writefile{toc}{\contentsline {section}{\numberline {2.3}Kesalahan pada Penulisan Artikel Ilmiah}{6}{section.2.3}}
\citation{puebi}
\@writefile{toc}{\contentsline {section}{\numberline {2.4}Aturan Penulisan Ilmiah Bahasa Indonesia}{7}{section.2.4}}
\@writefile{toc}{\contentsline {subsection}{\numberline {2.4.1}Pedoman Umum Ejaan Bahasa Indonesia}{7}{subsection.2.4.1}}
\citation{tbbi}
\citation{postag.mirna.1}
\citation{postag.cutting}
\citation{postag.mirna.1}
\citation{jurafsky}
\citation{jurafsky}
\citation{postag.hmm}
\citation{postag.mirna.1}
\citation{postag.rule}
\@writefile{toc}{\contentsline {subsection}{\numberline {2.4.2}Tata Bahasa Baku Bahasa Indonesia}{9}{subsection.2.4.2}}
\@writefile{toc}{\contentsline {section}{\numberline {2.5}{\textit  {Part of Speech Tagging}} (POSTAG)}{9}{section.2.5}}
\citation{postag.mirna.1}
\citation{postag.morphind}
\citation{postag.mantagged}
\citation{postag.rule}
\citation{postag.rule}
\citation{postag.mantagged}
\citation{jurafsky}
\citation{ner.1}
\citation{jurafsky}
\@writefile{toc}{\contentsline {section}{\numberline {2.6}{\textit  {Named Entity Recognition}} (NER)}{10}{section.2.6}}
\citation{ner.lev}
\citation{ner.1}
\citation{ner.ruli}
\@writefile{toc}{\contentsline {section}{\numberline {2.7}Model \textit  {Machine Learning}}{11}{section.2.7}}
\citation{jurafsky}
\citation{jurafsky}
\citation{jurafsky}
\citation{jurafsky}
\@writefile{toc}{\contentsline {subsection}{\numberline {2.7.1}Naive Bayes}{12}{subsection.2.7.1}}
\@writefile{toc}{\contentsline {subsection}{\numberline {2.7.2}\textit  {Sequence Model}}{12}{subsection.2.7.2}}
\@writefile{toc}{\contentsline {subsubsection}{\numberline {2.7.2.1}Maximum Entropy}{12}{subsubsection.2.7.2.1}}
\citation{jurafsky}
\citation{jurafsky}
\citation{kak.izzunaqi}
\@writefile{toc}{\contentsline {section}{\numberline {2.8}PDFMiner}{13}{section.2.8}}
\citation{nltk}
\citation{sklearn}
\@writefile{toc}{\contentsline {section}{\numberline {2.9}\textit  {Natural Language Toolkit}}{14}{section.2.9}}
\@writefile{toc}{\contentsline {section}{\numberline {2.10}Scikit-learn}{14}{section.2.10}}
\@setckpt{bab2}{
\setcounter{page}{15}
\setcounter{equation}{3}
\setcounter{enumi}{2}
\setcounter{enumii}{15}
\setcounter{enumiii}{0}
\setcounter{enumiv}{0}
\setcounter{footnote}{0}
\setcounter{mpfootnote}{0}
\setcounter{part}{0}
\setcounter{chapter}{2}
\setcounter{section}{10}
\setcounter{subsection}{0}
\setcounter{subsubsection}{0}
\setcounter{paragraph}{0}
\setcounter{subparagraph}{0}
\setcounter{figure}{0}
\setcounter{table}{0}
\setcounter{Item}{33}
\setcounter{Hfootnote}{0}
\setcounter{bookmark@seq@number}{32}
\setcounter{ContinuedFloat}{0}
\setcounter{parentequation}{0}
\setcounter{AM@survey}{0}
\setcounter{float@type}{8}
\setcounter{lstnumber}{1}
\setcounter{section@level}{1}
\setcounter{lstlisting}{0}
}
