\relax 
\providecommand\hyper@newdestlabel[2]{}
\citation{salah}
\citation{arti.ejaan}
\citation{puebi}
\citation{typograph}
\citation{typograph}
\citation{puebi}
\@writefile{toc}{\contentsline {chapter}{\numberline {3}\uppercase {Metodologi Penelitian}}{15}{chapter.3}}
\@writefile{lof}{\addvspace {10\p@ }}
\@writefile{lot}{\addvspace {10\p@ }}
\@writefile{toc}{\contentsline {section}{\numberline {3.1}Penentuan Kesalahan}{15}{section.3.1}}
\@writefile{toc}{\contentsline {subsection}{\numberline {3.1.1}{Kesalahan Ejaan}}{15}{subsection.3.1.1}}
\@writefile{toc}{\contentsline {subsection}{\numberline {3.1.2}Kesalahan Tipografi}{15}{subsection.3.1.2}}
\@writefile{toc}{\contentsline {subsection}{\numberline {3.1.3}Kesalahan Penggunaan Kata}{16}{subsection.3.1.3}}
\@writefile{toc}{\contentsline {subsection}{\numberline {3.1.4}{Kesalahan Bibliografi}}{16}{subsection.3.1.4}}
\@writefile{toc}{\contentsline {subsection}{\numberline {3.1.5}Kesalahan {\textit  {Layouting}}}{16}{subsection.3.1.5}}
\citation{puebi}
\@writefile{toc}{\contentsline {section}{\numberline {3.2}Rancangan Pembentukan Sistem}{17}{section.3.2}}
\@writefile{lof}{\contentsline {figure}{\numberline {3.1}{\ignorespaces Bagan Perancangan Sistem secara Garis Besar\relax }}{18}{figure.caption.13}}
\providecommand*\caption@xref[2]{\@setref\relax\@undefined{#1}}
\newlabel{bgn_rancang}{{3.1}{18}{Bagan Perancangan Sistem secara Garis Besar\relax }{figure.caption.13}{}}
\@writefile{toc}{\contentsline {section}{\numberline {3.3}Identifikasi Kesalahan Penulisan Ilmiah dan Strategi Pendekatannya}{19}{section.3.3}}
\@writefile{toc}{\contentsline {subsection}{\numberline {3.3.1}Pengumpulan Aturan}{19}{subsection.3.3.1}}
\@writefile{toc}{\contentsline {subsection}{\numberline {3.3.2}Identifikasi Kesalahan yang Melanggar Aturan}{19}{subsection.3.3.2}}
\@writefile{toc}{\contentsline {subsubsection}{\numberline {3.3.2.1}Kesalahan Tipografi}{19}{subsubsection.3.3.2.1}}
\@writefile{lot}{\contentsline {table}{\numberline {3.1}{\ignorespaces Contoh Kesalahan Pada Aturan Huruf Kapital\relax }}{22}{table.caption.14}}
\newlabel{salkaps}{{3.1}{22}{Contoh Kesalahan Pada Aturan Huruf Kapital\relax }{table.caption.14}{}}
\@writefile{lot}{\contentsline {table}{\numberline {3.2}{\ignorespaces Contoh Kesalahan Pada Aturan Huruf Miring\relax }}{25}{table.caption.17}}
\newlabel{salring}{{3.2}{25}{Contoh Kesalahan Pada Aturan Huruf Miring\relax }{table.caption.17}{}}
\@writefile{toc}{\contentsline {subsubsection}{\numberline {3.3.2.2}Kesalahan Ejaan}{25}{subsubsection.3.3.2.2}}
\@writefile{lot}{\contentsline {table}{\numberline {3.3}{\ignorespaces Contoh Kesalahan Pada Aturan Tanda Baca Titik\relax }}{26}{table.caption.18}}
\newlabel{saltik}{{3.3}{26}{Contoh Kesalahan Pada Aturan Tanda Baca Titik\relax }{table.caption.18}{}}
\@writefile{lot}{\contentsline {table}{\numberline {3.4}{\ignorespaces Contoh Kesalahan Pada Aturan Tanda Baca Koma\relax }}{27}{table.caption.19}}
\newlabel{salkom}{{3.4}{27}{Contoh Kesalahan Pada Aturan Tanda Baca Koma\relax }{table.caption.19}{}}
\@writefile{lot}{\contentsline {table}{\numberline {3.5}{\ignorespaces Contoh Kesalahan Pada Aturan Tanda Tanya\relax }}{27}{table.caption.20}}
\newlabel{saltan}{{3.5}{27}{Contoh Kesalahan Pada Aturan Tanda Tanya\relax }{table.caption.20}{}}
\@writefile{lot}{\contentsline {table}{\numberline {3.6}{\ignorespaces Contoh Kesalahan Pada Aturan Tanda Seru\relax }}{28}{table.caption.21}}
\newlabel{salser}{{3.6}{28}{Contoh Kesalahan Pada Aturan Tanda Seru\relax }{table.caption.21}{}}
\@writefile{toc}{\contentsline {subsection}{\numberline {3.3.3}Strategi Pendeteksian Kesalahan}{28}{subsection.3.3.3}}
\@writefile{toc}{\contentsline {subsubsection}{\numberline {3.3.3.1}Penggunaan \textit  {Rule Base}}{28}{subsubsection.3.3.3.1}}
\@writefile{toc}{\contentsline {subsubsection}{\numberline {3.3.3.2}Penggunaan NER}{29}{subsubsection.3.3.3.2}}
\@writefile{toc}{\contentsline {subsubsection}{\numberline {3.3.3.3}Penggunaan POSTAG}{29}{subsubsection.3.3.3.3}}
\@writefile{toc}{\contentsline {subsubsection}{\numberline {3.3.3.4}Penggunaan Klasifikasi}{30}{subsubsection.3.3.3.4}}
\@writefile{toc}{\contentsline {subsubsection}{\numberline {3.3.3.5}Pengelompokan Aturan Berdasarkan Strategi}{30}{subsubsection.3.3.3.5}}
\@writefile{lot}{\contentsline {table}{\numberline {3.7}{\ignorespaces Pengelompokan Aturan Berdasarkan Strategi Pendeteksiannya\relax }}{31}{table.caption.22}}
\newlabel{strag}{{3.7}{31}{Pengelompokan Aturan Berdasarkan Strategi Pendeteksiannya\relax }{table.caption.22}{}}
\@writefile{toc}{\contentsline {section}{\numberline {3.4}Pengumpulan dan \textit  {Parsing} Data}{31}{section.3.4}}
\@writefile{toc}{\contentsline {subsection}{\numberline {3.4.1}Pengumpulan Data dari Laporan Kerja Praktik (KP) Fasilkom}{31}{subsection.3.4.1}}
\@writefile{toc}{\contentsline {subsection}{\numberline {3.4.2}Pengumpulan Data dari Laporan Tugas Akhir S1 Fasilkom}{32}{subsection.3.4.2}}
\@writefile{toc}{\contentsline {subsection}{\numberline {3.4.3}\textit  {Parsing} Dokumen}{32}{subsection.3.4.3}}
\@writefile{lof}{\contentsline {figure}{\numberline {3.2}{\ignorespaces Bagan Pengubahan PDF menjadi XML\relax }}{32}{figure.caption.23}}
\newlabel{bapar}{{3.2}{32}{Bagan Pengubahan PDF menjadi XML\relax }{figure.caption.23}{}}
\@writefile{toc}{\contentsline {section}{\numberline {3.5}Pembubuhan POSTAG dan NER}{33}{section.3.5}}
\@writefile{lof}{\contentsline {figure}{\numberline {3.3}{\ignorespaces Bagan Pengumpulan POSTAG dan NER dari Dokumen\relax }}{33}{figure.caption.24}}
\newlabel{bgn_pos_ner}{{3.3}{33}{Bagan Pengumpulan POSTAG dan NER dari Dokumen\relax }{figure.caption.24}{}}
\citation{postag.rule}
\citation{ner.ruli}
\@writefile{toc}{\contentsline {subsection}{\numberline {3.5.1}Pembubuhan POSTAG}{34}{subsection.3.5.1}}
\@writefile{toc}{\contentsline {subsubsection}{\numberline {3.5.1.1}Evaluasi POSTAG}{34}{subsubsection.3.5.1.1}}
\@writefile{toc}{\contentsline {subsection}{\numberline {3.5.2}Pembangunan NER}{34}{subsection.3.5.2}}
\citation{ner.lev}
\@writefile{toc}{\contentsline {subsubsection}{\numberline {3.5.2.1}Pembubuhan POSTAG}{35}{subsubsection.3.5.2.1}}
\@writefile{toc}{\contentsline {subsubsection}{\numberline {3.5.2.2}Ekstraksi Fitur}{35}{subsubsection.3.5.2.2}}
\@writefile{toc}{\contentsline {subsubsection}{\numberline {3.5.2.3}Pelatihan NER}{36}{subsubsection.3.5.2.3}}
\citation{postag.rule}
\@writefile{toc}{\contentsline {subsubsection}{\numberline {3.5.2.4}Evaluasi NER}{37}{subsubsection.3.5.2.4}}
\@writefile{toc}{\contentsline {section}{\numberline {3.6}Pembentukan Kamus}{37}{section.3.6}}
\@writefile{toc}{\contentsline {subsection}{\numberline {3.6.1}Kamus Hari dan Bulan}{37}{subsection.3.6.1}}
\@writefile{toc}{\contentsline {subsection}{\numberline {3.6.2}Kamus Terminologi Agama}{37}{subsection.3.6.2}}
\citation{tbbi}
\@writefile{toc}{\contentsline {subsection}{\numberline {3.6.3}Kamus Nama Negara}{38}{subsection.3.6.3}}
\@writefile{toc}{\contentsline {subsection}{\numberline {3.6.4}Kamus Kata Tugas}{38}{subsection.3.6.4}}
\@writefile{toc}{\contentsline {subsection}{\numberline {3.6.5}Kamus Gelar}{38}{subsection.3.6.5}}
\@writefile{toc}{\contentsline {section}{\numberline {3.7}Pendeteksian Kesalahan}{38}{section.3.7}}
\@writefile{lof}{\contentsline {figure}{\numberline {3.4}{\ignorespaces Bagan Dokumen yang Digunakan dalam Pemeriksaan\relax }}{39}{figure.caption.25}}
\newlabel{pebapesi}{{3.4}{39}{Bagan Dokumen yang Digunakan dalam Pemeriksaan\relax }{figure.caption.25}{}}
\@writefile{toc}{\contentsline {subsection}{\numberline {3.7.1}Kesalahan Huruf Kapital}{39}{subsection.3.7.1}}
\@writefile{lof}{\contentsline {figure}{\numberline {3.5}{\ignorespaces Bagan Pemeriksaan Huruf Kapital\relax }}{40}{figure.caption.26}}
\newlabel{hukaba}{{3.5}{40}{Bagan Pemeriksaan Huruf Kapital\relax }{figure.caption.26}{}}
\@writefile{toc}{\contentsline {subsection}{\numberline {3.7.2}Kesalahan Huruf Miring}{41}{subsection.3.7.2}}
\@writefile{lof}{\contentsline {figure}{\numberline {3.6}{\ignorespaces Bagan Pemeriksaan Huruf Miring\relax }}{42}{figure.caption.27}}
\newlabel{humiba}{{3.6}{42}{Bagan Pemeriksaan Huruf Miring\relax }{figure.caption.27}{}}
\@writefile{toc}{\contentsline {subsection}{\numberline {3.7.3}Kesalahan Penggunaan Titik}{42}{subsection.3.7.3}}
\@writefile{lof}{\contentsline {figure}{\numberline {3.7}{\ignorespaces Bagan Pemeriksaan Tanda Baca Titik\relax }}{43}{figure.caption.28}}
\newlabel{tiba}{{3.7}{43}{Bagan Pemeriksaan Tanda Baca Titik\relax }{figure.caption.28}{}}
\@writefile{toc}{\contentsline {subsection}{\numberline {3.7.4}Kesalahan Penggunaan Koma}{43}{subsection.3.7.4}}
\@writefile{lof}{\contentsline {figure}{\numberline {3.8}{\ignorespaces Bagan Pemeriksaan Tanda Baca Koma\relax }}{44}{figure.caption.29}}
\newlabel{takoba}{{3.8}{44}{Bagan Pemeriksaan Tanda Baca Koma\relax }{figure.caption.29}{}}
\@writefile{toc}{\contentsline {subsection}{\numberline {3.7.5}Alur Pendeteksian Kesalahan}{45}{subsection.3.7.5}}
\@writefile{lot}{\contentsline {table}{\numberline {3.8}{\ignorespaces Ilustrasi Pendeteksian Kesalahan\relax }}{46}{table.caption.30}}
\newlabel{tabildet}{{3.8}{46}{Ilustrasi Pendeteksian Kesalahan\relax }{table.caption.30}{}}
\@writefile{lot}{\contentsline {table}{\numberline {3.9}{\ignorespaces Ilustrasi Pendeteksian Kesalahan jika Terdapat Lebih dari Satu Kesalahan pada Sebuah Kata\relax }}{47}{table.caption.31}}
\newlabel{tabildetledasat}{{3.9}{47}{Ilustrasi Pendeteksian Kesalahan jika Terdapat Lebih dari Satu Kesalahan pada Sebuah Kata\relax }{table.caption.31}{}}
\@writefile{lof}{\contentsline {figure}{\numberline {3.9}{\ignorespaces Ilustrasi Pemeriksaan Lebih Dalam\relax }}{48}{figure.caption.32}}
\newlabel{iledal}{{3.9}{48}{Ilustrasi Pemeriksaan Lebih Dalam\relax }{figure.caption.32}{}}
\@writefile{lot}{\contentsline {table}{\numberline {3.10}{\ignorespaces Penggunaan Prioritas Mampu Mengatasi Kasus Ini\relax }}{49}{table.caption.33}}
\@writefile{toc}{\contentsline {section}{\numberline {3.8}Pengoreksian Kesalahan}{50}{section.3.8}}
\@writefile{toc}{\contentsline {subsection}{\numberline {3.8.1}Pengoreksian Huruf Kapital}{50}{subsection.3.8.1}}
\@writefile{lof}{\contentsline {figure}{\numberline {3.10}{\ignorespaces Bagan Pengoreksian Huruf Kapital\relax }}{51}{figure.caption.34}}
\newlabel{korkap}{{3.10}{51}{Bagan Pengoreksian Huruf Kapital\relax }{figure.caption.34}{}}
\@writefile{toc}{\contentsline {subsection}{\numberline {3.8.2}Pengoreksian Huruf Miring}{52}{subsection.3.8.2}}
\@writefile{lof}{\contentsline {figure}{\numberline {3.11}{\ignorespaces Bagan Pengoreksian Huruf Miring\relax }}{52}{figure.caption.35}}
\newlabel{kormir}{{3.11}{52}{Bagan Pengoreksian Huruf Miring\relax }{figure.caption.35}{}}
\@writefile{toc}{\contentsline {subsection}{\numberline {3.8.3}Pengoresian Tanda Baca Titik}{53}{subsection.3.8.3}}
\@writefile{lof}{\contentsline {figure}{\numberline {3.12}{\ignorespaces Bagan Pengoreksian Tanda Baca Titik\relax }}{53}{figure.caption.36}}
\newlabel{kortik}{{3.12}{53}{Bagan Pengoreksian Tanda Baca Titik\relax }{figure.caption.36}{}}
\@writefile{toc}{\contentsline {subsection}{\numberline {3.8.4}Pengoreksian Tanda Baca Koma}{53}{subsection.3.8.4}}
\@writefile{lof}{\contentsline {figure}{\numberline {3.13}{\ignorespaces Bagan Pengoreksian Tanda Baca Koma\relax }}{54}{figure.caption.37}}
\newlabel{korkom}{{3.13}{54}{Bagan Pengoreksian Tanda Baca Koma\relax }{figure.caption.37}{}}
\@writefile{toc}{\contentsline {section}{\numberline {3.9}Perancangan Cara Kerja Sistem}{55}{section.3.9}}
\@writefile{lof}{\contentsline {figure}{\numberline {3.14}{\ignorespaces Bagan Cara Kerja Sistem\relax }}{56}{figure.caption.38}}
\newlabel{bgn_ca_ker}{{3.14}{56}{Bagan Cara Kerja Sistem\relax }{figure.caption.38}{}}
\@setckpt{bab3}{
\setcounter{page}{58}
\setcounter{equation}{0}
\setcounter{enumi}{18}
\setcounter{enumii}{23}
\setcounter{enumiii}{0}
\setcounter{enumiv}{0}
\setcounter{footnote}{2}
\setcounter{mpfootnote}{0}
\setcounter{part}{0}
\setcounter{chapter}{3}
\setcounter{section}{9}
\setcounter{subsection}{0}
\setcounter{subsubsection}{0}
\setcounter{paragraph}{0}
\setcounter{subparagraph}{0}
\setcounter{figure}{14}
\setcounter{table}{10}
\setcounter{Item}{82}
\setcounter{Hfootnote}{2}
\setcounter{bookmark@seq@number}{81}
\setcounter{ContinuedFloat}{0}
\setcounter{parentequation}{0}
\setcounter{AM@survey}{0}
\setcounter{float@type}{8}
\setcounter{lstnumber}{1}
\setcounter{section@level}{1}
\setcounter{lstlisting}{0}
}
