\relax 
\providecommand\hyper@newdestlabel[2]{}
\citation{postag.rule}
\@writefile{toc}{\contentsline {chapter}{\numberline {4}\uppercase {Implementasi}}{58}{chapter.4}}
\@writefile{lof}{\addvspace {10\p@ }}
\@writefile{lot}{\addvspace {10\p@ }}
\@writefile{toc}{\contentsline {section}{\numberline {4.1}Pembubuhan POSTAG}{58}{section.4.1}}
\@writefile{toc}{\contentsline {subsection}{\numberline {4.1.1}POSTAG Rashel, dkk yang Menggunakan \textit  {Rule Base}}{58}{subsection.4.1.1}}
\newlabel{psd_postag_rashel}{{4.1}{60}{Kode untuk Mendapatkan POSTAG Sebuah Dokumen Menggunakan Rule Base}{lstlisting.4.1}{}}
\@writefile{lol}{\contentsline {lstlisting}{\numberline {4.1}Kode untuk Mendapatkan POSTAG Sebuah Dokumen Menggunakan Rule Base}{60}{lstlisting.4.1}}
\@writefile{toc}{\contentsline {subsection}{\numberline {4.1.2}POSTAG Rashel, dkk dalam Bentuk CRF}{61}{subsection.4.1.2}}
\newlabel{psd_postag_din}{{4.2}{62}{Kode untuk Mendapatkan POSTAG Sebuah Dokumen Menggunakan CRF}{lstlisting.4.2}{}}
\@writefile{lol}{\contentsline {lstlisting}{\numberline {4.2}Kode untuk Mendapatkan POSTAG Sebuah Dokumen Menggunakan CRF}{62}{lstlisting.4.2}}
\@writefile{toc}{\contentsline {section}{\numberline {4.2}Pembangunan NER}{63}{section.4.2}}
\@writefile{toc}{\contentsline {subsection}{\numberline {4.2.1}Ekstraksi Fitur}{63}{subsection.4.2.1}}
\newlabel{eksfit}{{4.3}{64}{Kode untuk Mengesktrak Fitur suatu Kata pada Kalimat dalam Dokumen}{lstlisting.4.3}{}}
\@writefile{lol}{\contentsline {lstlisting}{\numberline {4.3}Kode untuk Mengesktrak Fitur suatu Kata pada Kalimat dalam Dokumen}{64}{lstlisting.4.3}}
\@writefile{toc}{\contentsline {subsection}{\numberline {4.2.2}Pelatihan Fitur}{64}{subsection.4.2.2}}
\@writefile{toc}{\contentsline {subsubsection}{\numberline {4.2.2.1}Pelatihan Fitur dengan Naive Bayes Menggunakan NLTK}{65}{subsubsection.4.2.2.1}}
\newlabel{tr_nabe}{{4.4}{65}{Kode untuk Melatih Fitur dengan Naive Bayes}{lstlisting.4.4}{}}
\@writefile{lol}{\contentsline {lstlisting}{\numberline {4.4}Kode untuk Melatih Fitur dengan Naive Bayes}{65}{lstlisting.4.4}}
\@writefile{toc}{\contentsline {subsubsection}{\numberline {4.2.2.2}Pelatihan Fitur dengan Maximum Entropy Menggunakan NLTK}{66}{subsubsection.4.2.2.2}}
\newlabel{tr_maxe}{{4.5}{66}{Kode untuk Melatih Fitur dengan Maximum Entropy}{lstlisting.4.5}{}}
\@writefile{lol}{\contentsline {lstlisting}{\numberline {4.5}Kode untuk Melatih Fitur dengan Maximum Entropy}{66}{lstlisting.4.5}}
\@writefile{toc}{\contentsline {subsubsection}{\numberline {4.2.2.3}Klasifikasi Entitas Nama pada NLTK}{66}{subsubsection.4.2.2.3}}
\newlabel{klas_n}{{4.6}{67}{Kode untuk Melakukan Klasifikasi pada NLTK}{lstlisting.4.6}{}}
\@writefile{lol}{\contentsline {lstlisting}{\numberline {4.6}Kode untuk Melakukan Klasifikasi pada NLTK}{67}{lstlisting.4.6}}
\@writefile{toc}{\contentsline {subsubsection}{\numberline {4.2.2.4}Pelatihan Fitur dengan Maximum Entropy Menggunakan Scikit-Learn}{67}{subsubsection.4.2.2.4}}
\newlabel{me_sci}{{4.7}{68}{Kode untuk Membangun Model MaxEnt dengan Scikit-Learn}{lstlisting.4.7}{}}
\@writefile{lol}{\contentsline {lstlisting}{\numberline {4.7}Kode untuk Membangun Model MaxEnt dengan Scikit-Learn}{68}{lstlisting.4.7}}
\@writefile{toc}{\contentsline {subsubsection}{\numberline {4.2.2.5}Klasifikasi Entitas Nama dengan Scikit-Learn}{69}{subsubsection.4.2.2.5}}
\newlabel{me_sci}{{4.8}{69}{Kode untuk Membangun Model MaxEnt dengan Scikit-Learn}{lstlisting.4.8}{}}
\@writefile{lol}{\contentsline {lstlisting}{\numberline {4.8}Kode untuk Membangun Model MaxEnt dengan Scikit-Learn}{69}{lstlisting.4.8}}
\@writefile{toc}{\contentsline {section}{\numberline {4.3}Pendeteksian Kesalahan}{70}{section.4.3}}
\@writefile{toc}{\contentsline {subsection}{\numberline {4.3.1}Pendeteksian Kesalahan Huruf Kapital}{70}{subsection.4.3.1}}
\@writefile{toc}{\contentsline {subsubsection}{\numberline {4.3.1.1}Huruf Kapital di Awal Kalimat}{70}{subsubsection.4.3.1.1}}
\newlabel{detawkal}{{4.9}{70}{Kode untuk Mendeteksi Kesalahan Huruf Kapital di Awal Kalimat}{lstlisting.4.9}{}}
\@writefile{lol}{\contentsline {lstlisting}{\numberline {4.9}Kode untuk Mendeteksi Kesalahan Huruf Kapital di Awal Kalimat}{70}{lstlisting.4.9}}
\@writefile{toc}{\contentsline {subsubsection}{\numberline {4.3.1.2}Kesalahan Huruf Kapital untuk Nama Hari dan Bulan}{71}{subsubsection.4.3.1.2}}
\newlabel{denahar}{{4.10}{71}{Kode untuk Mendeteksi Kesalahan Huruf Kapital untuk Nama Hari dan Bulan}{lstlisting.4.10}{}}
\@writefile{lol}{\contentsline {lstlisting}{\numberline {4.10}Kode untuk Mendeteksi Kesalahan Huruf Kapital untuk Nama Hari dan Bulan}{71}{lstlisting.4.10}}
\@writefile{toc}{\contentsline {subsubsection}{\numberline {4.3.1.3}Kesalahan Huruf Kapital untuk Nama Geografi Berupa Negara}{71}{subsubsection.4.3.1.3}}
\newlabel{denaneg}{{4.11}{72}{Kode untuk Mendeteksi Kesalahan Huruf Kapital untuk Nama Geografi Berupa Negara}{lstlisting.4.11}{}}
\@writefile{lol}{\contentsline {lstlisting}{\numberline {4.11}Kode untuk Mendeteksi Kesalahan Huruf Kapital untuk Nama Geografi Berupa Negara}{72}{lstlisting.4.11}}
\@writefile{toc}{\contentsline {subsubsection}{\numberline {4.3.1.4}Kesalahan Huruf Kapital untuk Terminologi Agama}{72}{subsubsection.4.3.1.4}}
\newlabel{deaga}{{4.12}{73}{Kode untuk Mendeteksi Kesalahan Huruf Kapital untuk Terminologi Agama}{lstlisting.4.12}{}}
\@writefile{lol}{\contentsline {lstlisting}{\numberline {4.12}Kode untuk Mendeteksi Kesalahan Huruf Kapital untuk Terminologi Agama}{73}{lstlisting.4.12}}
\@writefile{toc}{\contentsline {subsubsection}{\numberline {4.3.1.5}Kesalahan Huruf Kapital untuk Kata Tugas}{73}{subsubsection.4.3.1.5}}
\newlabel{dekatu}{{4.13}{73}{Kode untuk Mendeteksi Kesalahan Huruf Kapital yang Digunakan pada Kata Tugas}{lstlisting.4.13}{}}
\@writefile{lol}{\contentsline {lstlisting}{\numberline {4.13}Kode untuk Mendeteksi Kesalahan Huruf Kapital yang Digunakan pada Kata Tugas}{73}{lstlisting.4.13}}
\@writefile{toc}{\contentsline {subsubsection}{\numberline {4.3.1.6}Kesalahan Huruf Kapital Menggunakan NER}{74}{subsubsection.4.3.1.6}}
\newlabel{dener}{{4.14}{74}{Kode untuk Mendeteksi Kesalahan Huruf Kapital Menggunakan NER}{lstlisting.4.14}{}}
\@writefile{lol}{\contentsline {lstlisting}{\numberline {4.14}Kode untuk Mendeteksi Kesalahan Huruf Kapital Menggunakan NER}{74}{lstlisting.4.14}}
\@writefile{toc}{\contentsline {subsection}{\numberline {4.3.2}Pendeteksian Kesalahan Huruf Cetak Miring}{75}{subsection.4.3.2}}
\@writefile{toc}{\contentsline {subsubsection}{\numberline {4.3.2.1}Huruf Cetak Miring untuk Kata Berbahasa Asing}{75}{subsubsection.4.3.2.1}}
\newlabel{desing}{{4.15}{76}{Kode untuk Mendeteksi Kesalahan Tipografi Bahasa Asing}{lstlisting.4.15}{}}
\@writefile{lol}{\contentsline {lstlisting}{\numberline {4.15}Kode untuk Mendeteksi Kesalahan Tipografi Bahasa Asing}{76}{lstlisting.4.15}}
\@writefile{toc}{\contentsline {subsubsection}{\numberline {4.3.2.2}Huruf Tidak Dicetak Miring untuk Kata Berbahasa Asing yang Merupakan Nama}{76}{subsubsection.4.3.2.2}}
\newlabel{detasma}{{4.16}{77}{Kode untuk Mendeteksi Kesalahan Tipografi Bahasa Asing yang Merupakan Suatu Entitas Nama}{lstlisting.4.16}{}}
\@writefile{lol}{\contentsline {lstlisting}{\numberline {4.16}Kode untuk Mendeteksi Kesalahan Tipografi Bahasa Asing yang Merupakan Suatu Entitas Nama}{77}{lstlisting.4.16}}
\@writefile{toc}{\contentsline {subsection}{\numberline {4.3.3}Pendeteksian Kesalahan Tanda Baca Titik}{77}{subsection.4.3.3}}
\@writefile{toc}{\contentsline {subsubsection}{\numberline {4.3.3.1}Titik pada Angka Ribuan}{77}{subsubsection.4.3.3.1}}
\newlabel{deru}{{4.17}{78}{Kode untuk Mendeteksi Kesalahan Huruf Kapital Menggunakan NER}{lstlisting.4.17}{}}
\@writefile{lol}{\contentsline {lstlisting}{\numberline {4.17}Kode untuk Mendeteksi Kesalahan Huruf Kapital Menggunakan NER}{78}{lstlisting.4.17}}
\@writefile{toc}{\contentsline {subsection}{\numberline {4.3.4}Pendeteksian Kesalahan Tanda Baca Koma}{79}{subsection.4.3.4}}
\@writefile{toc}{\contentsline {subsubsection}{\numberline {4.3.4.1}Koma untuk Kata Penghubung pada Kalimat Setara}{79}{subsubsection.4.3.4.1}}
\newlabel{dekase}{{4.18}{79}{Kode untuk Mendeteksi Kesalahan pada Koma untuk Konjungsi Pertentangan}{lstlisting.4.18}{}}
\@writefile{lol}{\contentsline {lstlisting}{\numberline {4.18}Kode untuk Mendeteksi Kesalahan pada Koma untuk Konjungsi Pertentangan}{79}{lstlisting.4.18}}
\@writefile{toc}{\contentsline {subsubsection}{\numberline {4.3.4.2}Koma untuk Kata Penghubung Antarkalimat}{80}{subsubsection.4.3.4.2}}
\newlabel{detaka}{{4.19}{80}{Kode untuk Mendeteksi Kesalahan pada Koma untuk Kata Penghubung Antarkalimat}{lstlisting.4.19}{}}
\@writefile{lol}{\contentsline {lstlisting}{\numberline {4.19}Kode untuk Mendeteksi Kesalahan pada Koma untuk Kata Penghubung Antarkalimat}{80}{lstlisting.4.19}}
\@writefile{toc}{\contentsline {subsubsection}{\numberline {4.3.4.3}Koma di antara Anak Kalimat dan Induk Kalimat}{80}{subsubsection.4.3.4.3}}
\newlabel{deaduk}{{4.20}{81}{Kode untuk Mendeteksi Kesalahan pada Koma di antara Anak Kalimat dan Induk Kalimat}{lstlisting.4.20}{}}
\@writefile{lol}{\contentsline {lstlisting}{\numberline {4.20}Kode untuk Mendeteksi Kesalahan pada Koma di antara Anak Kalimat dan Induk Kalimat}{81}{lstlisting.4.20}}
\@writefile{toc}{\contentsline {subsubsection}{\numberline {4.3.4.4}Koma di antara Nama dan Gelar}{81}{subsubsection.4.3.4.4}}
\newlabel{denagel}{{4.21}{82}{Kode untuk Mendeteksi Kesalahan pada Koma di antara Nama dengan Gelarnya}{lstlisting.4.21}{}}
\@writefile{lol}{\contentsline {lstlisting}{\numberline {4.21}Kode untuk Mendeteksi Kesalahan pada Koma di antara Nama dengan Gelarnya}{82}{lstlisting.4.21}}
\@writefile{toc}{\contentsline {section}{\numberline {4.4}Pengoreksian Kesalahan}{82}{section.4.4}}
\@writefile{toc}{\contentsline {subsection}{\numberline {4.4.1}Pengoreksi Kesalahan Huruf Kapital}{82}{subsection.4.4.1}}
\@writefile{toc}{\contentsline {subsubsection}{\numberline {4.4.1.1}Huruf Kapital di Awal Kalimat}{83}{subsubsection.4.4.1.1}}
\newlabel{korawka}{{4.22}{83}{Kode untuk Mengoreksi Kesalahan Huruf Kapital di Awal Kalimat}{lstlisting.4.22}{}}
\@writefile{lol}{\contentsline {lstlisting}{\numberline {4.22}Kode untuk Mengoreksi Kesalahan Huruf Kapital di Awal Kalimat}{83}{lstlisting.4.22}}
\@writefile{toc}{\contentsline {subsubsection}{\numberline {4.4.1.2}Huruf Kapital pada Kata Tugas}{84}{subsubsection.4.4.1.2}}
\newlabel{korkatu}{{4.23}{84}{Kode untuk Mengoreksi Kesalahan Huruf Kapital yang Dipakai pada Kata Tugas}{lstlisting.4.23}{}}
\@writefile{lol}{\contentsline {lstlisting}{\numberline {4.23}Kode untuk Mengoreksi Kesalahan Huruf Kapital yang Dipakai pada Kata Tugas}{84}{lstlisting.4.23}}
\@writefile{toc}{\contentsline {subsubsection}{\numberline {4.4.1.3}Huruf Kapital pada Nama Negara, Hari dan Bulan, Terminologi Agama, dan Entitas Nama}{85}{subsubsection.4.4.1.3}}
\newlabel{korkaner}{{4.24}{85}{Kode untuk Mengoreksi Kesalahan Huruf Kapital yang Tidak Dipakai pada Nama Negara, Hari dan Bulan, Terminologi Agama Serta Entitas Nama}{lstlisting.4.24}{}}
\@writefile{lol}{\contentsline {lstlisting}{\numberline {4.24}Kode untuk Mengoreksi Kesalahan Huruf Kapital yang Tidak Dipakai pada Nama Negara, Hari dan Bulan, Terminologi Agama Serta Entitas Nama}{85}{lstlisting.4.24}}
\@writefile{toc}{\contentsline {subsection}{\numberline {4.4.2}Pengoreksi Kesalahan Huruf Miring}{86}{subsection.4.4.2}}
\@writefile{toc}{\contentsline {subsubsection}{\numberline {4.4.2.1}Huruf Miring pada Kata Bahasa Asing}{86}{subsubsection.4.4.2.1}}
\newlabel{korbasing}{{4.25}{86}{Kode untuk Mengoreksi Kesalahan Huruf Miring yang Dipakai pada Kata Bahasa Asing}{lstlisting.4.25}{}}
\@writefile{lol}{\contentsline {lstlisting}{\numberline {4.25}Kode untuk Mengoreksi Kesalahan Huruf Miring yang Dipakai pada Kata Bahasa Asing}{86}{lstlisting.4.25}}
\@writefile{toc}{\contentsline {subsubsection}{\numberline {4.4.2.2}Huruf Tidak Miring pada Kata Bahasa Asing yang Merupakan Nama}{86}{subsubsection.4.4.2.2}}
\newlabel{korbasina}{{4.26}{87}{Kode untuk Mengoreksi Kesalahan Huruf Miring yang Dipakai pada Kata Bahasa Asing yang Merupakan Suatu Nama}{lstlisting.4.26}{}}
\@writefile{lol}{\contentsline {lstlisting}{\numberline {4.26}Kode untuk Mengoreksi Kesalahan Huruf Miring yang Dipakai pada Kata Bahasa Asing yang Merupakan Suatu Nama}{87}{lstlisting.4.26}}
\@writefile{toc}{\contentsline {subsection}{\numberline {4.4.3}Pengoreksi Kesalahan Tanda Baca Titik}{87}{subsection.4.4.3}}
\@writefile{toc}{\contentsline {subsubsection}{\numberline {4.4.3.1}Kesalahan Tanda Baca Titik pada Bilangan Ribuan}{87}{subsubsection.4.4.3.1}}
\newlabel{kortiri}{{4.27}{88}{Kode untuk Mengoreksi Kesalahan Tanda Titik pada Bilangan Ribuan yang Merupakan Jumlah}{lstlisting.4.27}{}}
\@writefile{lol}{\contentsline {lstlisting}{\numberline {4.27}Kode untuk Mengoreksi Kesalahan Tanda Titik pada Bilangan Ribuan yang Merupakan Jumlah}{88}{lstlisting.4.27}}
\@writefile{toc}{\contentsline {subsection}{\numberline {4.4.4}Pengoreksi Kesalahan Tanda Baca Koma}{88}{subsection.4.4.4}}
\@writefile{toc}{\contentsline {subsubsection}{\numberline {4.4.4.1}Tanda Koma pada Kalimat Setara dan di antara Nama dan Gelar}{88}{subsubsection.4.4.4.1}}
\newlabel{korkas}{{4.28}{89}{Kode untuk Mengoreksi Kesalahan Tanda Koma pada Kalimat Setara dan di antara Nama dan Gelar}{lstlisting.4.28}{}}
\@writefile{lol}{\contentsline {lstlisting}{\numberline {4.28}Kode untuk Mengoreksi Kesalahan Tanda Koma pada Kalimat Setara dan di antara Nama dan Gelar}{89}{lstlisting.4.28}}
\@writefile{toc}{\contentsline {subsubsection}{\numberline {4.4.4.2}Tanda Koma setelah Kata Hubung Antarkalimat}{89}{subsubsection.4.4.4.2}}
\newlabel{korankal}{{4.29}{89}{Kode untuk Mengoreksi Kesalahan Tanda Koma pada Kata Hubung Antarkalimat}{lstlisting.4.29}{}}
\@writefile{lol}{\contentsline {lstlisting}{\numberline {4.29}Kode untuk Mengoreksi Kesalahan Tanda Koma pada Kata Hubung Antarkalimat}{89}{lstlisting.4.29}}
\@writefile{toc}{\contentsline {subsubsection}{\numberline {4.4.4.3}Tanda Baca Koma pada Anak Kalimat yang Mendahului Induk Kalimat}{90}{subsubsection.4.4.4.3}}
\newlabel{koranin}{{4.30}{90}{Kode untuk Mengoreksi Kesalahan Tanda Koma pada Kata Hubung Antarkalimat}{lstlisting.4.30}{}}
\@writefile{lol}{\contentsline {lstlisting}{\numberline {4.30}Kode untuk Mengoreksi Kesalahan Tanda Koma pada Kata Hubung Antarkalimat}{90}{lstlisting.4.30}}
\@setckpt{bab4}{
\setcounter{page}{92}
\setcounter{equation}{0}
\setcounter{enumi}{18}
\setcounter{enumii}{23}
\setcounter{enumiii}{0}
\setcounter{enumiv}{0}
\setcounter{footnote}{0}
\setcounter{mpfootnote}{0}
\setcounter{part}{0}
\setcounter{chapter}{4}
\setcounter{section}{4}
\setcounter{subsection}{4}
\setcounter{subsubsection}{3}
\setcounter{paragraph}{0}
\setcounter{subparagraph}{0}
\setcounter{figure}{0}
\setcounter{table}{0}
\setcounter{Item}{82}
\setcounter{Hfootnote}{2}
\setcounter{bookmark@seq@number}{125}
\setcounter{ContinuedFloat}{0}
\setcounter{parentequation}{0}
\setcounter{AM@survey}{0}
\setcounter{float@type}{8}
\setcounter{lstnumber}{13}
\setcounter{section@level}{3}
\setcounter{lstlisting}{30}
}
