\relax 
\providecommand\hyper@newdestlabel[2]{}
\@writefile{toc}{\contentsline {chapter}{\numberline {5}\uppercase {Evaluasi dan Analisis Hasil}}{92}{chapter.5}}
\@writefile{lof}{\addvspace {10\p@ }}
\@writefile{lot}{\addvspace {10\p@ }}
\@writefile{toc}{\contentsline {section}{\numberline {5.1}Pengumpulan dan Pengerucutan Aturan}{92}{section.5.1}}
\@writefile{toc}{\contentsline {subsection}{\numberline {5.1.1}Pengumpulan Aturan}{92}{subsection.5.1.1}}
\@writefile{toc}{\contentsline {subsection}{\numberline {5.1.2}Pengerucutan Aturan}{93}{subsection.5.1.2}}
\@writefile{toc}{\contentsline {section}{\numberline {5.2}Hasil POSTAG}{95}{section.5.2}}
\@writefile{lot}{\contentsline {table}{\numberline {5.1}{\ignorespaces Perbedaan Hasil POSTAG Menggunakan \textit  {Rule Base} dengan CRF\relax }}{96}{table.caption.39}}
\newlabel{beda_postag}{{5.1}{96}{Perbedaan Hasil POSTAG Menggunakan \textit {Rule Base} dengan CRF\relax }{table.caption.39}{}}
\@writefile{toc}{\contentsline {section}{\numberline {5.3}Pendeteksian Kesalahan}{96}{section.5.3}}
\@writefile{toc}{\contentsline {subsection}{\numberline {5.3.1}Tanda Baca dan Tipografi}{96}{subsection.5.3.1}}
\citation{postag.rule}
\@writefile{toc}{\contentsline {subsubsection}{\numberline {5.3.1.1}Evaluasi POSTAG dan NER}{97}{subsubsection.5.3.1.1}}
\@writefile{lot}{\contentsline {table}{\numberline {5.2}{\ignorespaces Hasil Evaluasi Pertama untuk POSTAG dan NER\relax }}{97}{table.caption.40}}
\newlabel{e1_poner}{{5.2}{97}{Hasil Evaluasi Pertama untuk POSTAG dan NER\relax }{table.caption.40}{}}
\@writefile{lot}{\contentsline {table}{\numberline {5.3}{\ignorespaces Hasil Evaluasi Kedua untuk POSTAG dan NER\relax }}{98}{table.caption.41}}
\newlabel{e2_poner}{{5.3}{98}{Hasil Evaluasi Kedua untuk POSTAG dan NER\relax }{table.caption.41}{}}
\@writefile{lot}{\contentsline {table}{\numberline {5.4}{\ignorespaces Hasil Evaluasi Ketiga untuk POSTAG dan NER\relax }}{98}{table.caption.42}}
\newlabel{e3_poner}{{5.4}{98}{Hasil Evaluasi Ketiga untuk POSTAG dan NER\relax }{table.caption.42}{}}
\citation{jurafsky}
\@writefile{lot}{\contentsline {table}{\numberline {5.5}{\ignorespaces Hasil Evaluasi Keempat untuk POSTAG dan NER\relax }}{99}{table.caption.43}}
\newlabel{e4_poner}{{5.5}{99}{Hasil Evaluasi Keempat untuk POSTAG dan NER\relax }{table.caption.43}{}}
\@writefile{lot}{\contentsline {table}{\numberline {5.6}{\ignorespaces Hasil Evaluasi Kelima untuk POSTAG dan NER\relax }}{100}{table.caption.44}}
\newlabel{e5_poner}{{5.6}{100}{Hasil Evaluasi Kelima untuk POSTAG dan NER\relax }{table.caption.44}{}}
\@writefile{lot}{\contentsline {table}{\numberline {5.7}{\ignorespaces Hasil Evaluasi Keenam untuk POSTAG dan NER\relax }}{100}{table.caption.45}}
\newlabel{e6_poner}{{5.7}{100}{Hasil Evaluasi Keenam untuk POSTAG dan NER\relax }{table.caption.45}{}}
\citation{jurafsky}
\@writefile{lof}{\contentsline {figure}{\numberline {5.1}{\ignorespaces Grafik Perubahan Persentase untuk tiap Percobaan\relax }}{101}{figure.caption.46}}
\newlabel{grakes}{{5.1}{101}{Grafik Perubahan Persentase untuk tiap Percobaan\relax }{figure.caption.46}{}}
\@writefile{lof}{\contentsline {figure}{\numberline {5.2}{\ignorespaces Grafik Perubahan Total Salah Deteksi\relax }}{101}{figure.caption.47}}
\newlabel{gratot}{{5.2}{101}{Grafik Perubahan Total Salah Deteksi\relax }{figure.caption.47}{}}
\@writefile{toc}{\contentsline {subsubsection}{\numberline {5.3.1.2}Evaluasi Regex \textit  {Base} dan \textit  {Dictionary Base}}{102}{subsubsection.5.3.1.2}}
\@writefile{lot}{\contentsline {table}{\numberline {5.8}{\ignorespaces Hasil Evaluasi Pertama untuk Regex \textit  {Base} dan \textit  {Dictionary Base}\relax }}{102}{table.caption.48}}
\newlabel{e1_redi}{{5.8}{102}{Hasil Evaluasi Pertama untuk Regex \textit {Base} dan \textit {Dictionary Base}\relax }{table.caption.48}{}}
\@writefile{lot}{\contentsline {table}{\numberline {5.9}{\ignorespaces Hasil Evaluasi Kedua untuk Regex \textit  {Base} dan \textit  {Dictionary Base}\relax }}{102}{table.caption.49}}
\newlabel{e2_redi}{{5.9}{102}{Hasil Evaluasi Kedua untuk Regex \textit {Base} dan \textit {Dictionary Base}\relax }{table.caption.49}{}}
\@writefile{toc}{\contentsline {subsection}{\numberline {5.3.2}Evaluasi Pemeriksaan Tanda Baca Titik}{103}{subsection.5.3.2}}
\@writefile{lot}{\contentsline {table}{\numberline {5.10}{\ignorespaces Evaluasi Pertama Tanda Baca Titik pada Ribuan yang Merupakan Jumlah\relax }}{103}{table.caption.50}}
\newlabel{tik_1}{{5.10}{103}{Evaluasi Pertama Tanda Baca Titik pada Ribuan yang Merupakan Jumlah\relax }{table.caption.50}{}}
\@writefile{lot}{\contentsline {table}{\numberline {5.11}{\ignorespaces Evaluasi Tanda Baca Titik pada Ribuan yang Merupakan Jumlah Kedua (NND + NN)\relax }}{103}{table.caption.51}}
\newlabel{tik_2}{{5.11}{103}{Evaluasi Tanda Baca Titik pada Ribuan yang Merupakan Jumlah Kedua (NND + NN)\relax }{table.caption.51}{}}
\@writefile{lot}{\contentsline {table}{\numberline {5.12}{\ignorespaces Evaluasi Tanda Baca Titik pada Ribuan yang Merupakan Jumlah Ketiga (NND + NN + Kamus)\relax }}{104}{table.caption.52}}
\newlabel{tik_3}{{5.12}{104}{Evaluasi Tanda Baca Titik pada Ribuan yang Merupakan Jumlah Ketiga (NND + NN + Kamus)\relax }{table.caption.52}{}}
\@writefile{toc}{\contentsline {subsection}{\numberline {5.3.3}Aturan yang Tidak Dievaluasi}{104}{subsection.5.3.3}}
\@writefile{toc}{\contentsline {subsection}{\numberline {5.3.4}Variabel Akhir}{104}{subsection.5.3.4}}
\@writefile{toc}{\contentsline {section}{\numberline {5.4}Pengoreksian Kesalahan}{106}{section.5.4}}
\@writefile{lot}{\contentsline {table}{\numberline {5.13}{\ignorespaces Hasil Evaluasi Pengoreksi Kesalahan\relax }}{106}{table.caption.53}}
\newlabel{tab_eva_kor}{{5.13}{106}{Hasil Evaluasi Pengoreksi Kesalahan\relax }{table.caption.53}{}}
\@setckpt{bab5}{
\setcounter{page}{108}
\setcounter{equation}{0}
\setcounter{enumi}{13}
\setcounter{enumii}{23}
\setcounter{enumiii}{0}
\setcounter{enumiv}{0}
\setcounter{footnote}{0}
\setcounter{mpfootnote}{0}
\setcounter{part}{0}
\setcounter{chapter}{5}
\setcounter{section}{4}
\setcounter{subsection}{0}
\setcounter{subsubsection}{0}
\setcounter{paragraph}{0}
\setcounter{subparagraph}{0}
\setcounter{figure}{2}
\setcounter{table}{13}
\setcounter{Item}{126}
\setcounter{Hfootnote}{2}
\setcounter{bookmark@seq@number}{138}
\setcounter{ContinuedFloat}{0}
\setcounter{parentequation}{0}
\setcounter{AM@survey}{0}
\setcounter{float@type}{8}
\setcounter{lstnumber}{13}
\setcounter{section@level}{1}
\setcounter{lstlisting}{0}
}
