\relax 
\providecommand\hyper@newdestlabel[2]{}
\@writefile{toc}{\contentsline {chapter}{\numberline {6}\uppercase {Kesimpulan dan Saran}}{77}{chapter.6}}
\@writefile{lof}{\addvspace {10\p@ }}
\@writefile{lot}{\addvspace {10\p@ }}
\@writefile{toc}{\contentsline {section}{\numberline {6.1}Kesimpulan}{77}{section.6.1}}
\@writefile{toc}{\contentsline {section}{\numberline {6.2}Saran}{77}{section.6.2}}
\@setckpt{kesimpulan}{
\setcounter{page}{78}
\setcounter{equation}{0}
\setcounter{enumi}{8}
\setcounter{enumii}{23}
\setcounter{enumiii}{0}
\setcounter{enumiv}{0}
\setcounter{footnote}{0}
\setcounter{mpfootnote}{0}
\setcounter{part}{0}
\setcounter{chapter}{6}
\setcounter{section}{2}
\setcounter{subsection}{0}
\setcounter{subsubsection}{0}
\setcounter{paragraph}{0}
\setcounter{subparagraph}{0}
\setcounter{figure}{0}
\setcounter{table}{0}
\setcounter{Item}{106}
\setcounter{Hfootnote}{0}
\setcounter{bookmark@seq@number}{101}
\setcounter{ContinuedFloat}{0}
\setcounter{parentequation}{0}
\setcounter{AM@survey}{0}
\setcounter{float@type}{8}
\setcounter{lstnumber}{13}
\setcounter{section@level}{1}
\setcounter{lstlisting}{0}
}
