\relax 
\providecommand\hyper@newdestlabel[2]{}
\@writefile{toc}{\contentsline {chapter}{LAMPIRAN}{1}{section*.55}}
\@setckpt{markLampiran}{
\setcounter{page}{1}
\setcounter{equation}{0}
\setcounter{enumi}{9}
\setcounter{enumii}{23}
\setcounter{enumiii}{0}
\setcounter{enumiv}{25}
\setcounter{footnote}{0}
\setcounter{mpfootnote}{0}
\setcounter{part}{0}
\setcounter{chapter}{0}
\setcounter{section}{0}
\setcounter{subsection}{0}
\setcounter{subsubsection}{0}
\setcounter{paragraph}{0}
\setcounter{subparagraph}{0}
\setcounter{figure}{0}
\setcounter{table}{0}
\setcounter{Item}{135}
\setcounter{Hfootnote}{2}
\setcounter{bookmark@seq@number}{143}
\setcounter{ContinuedFloat}{0}
\setcounter{parentequation}{0}
\setcounter{AM@survey}{0}
\setcounter{float@type}{8}
\setcounter{lstnumber}{13}
\setcounter{section@level}{1}
\setcounter{lstlisting}{0}
}
