\relax 
\providecommand\hyper@newdestlabel[2]{}
\bibcite{jurafsky}{1}
\bibcite{indurkhya}{2}
\bibcite{nltk}{3}
\bibcite{sklearn}{4}
\bibcite{merriam}{5}
\bibcite{arti.ejaan}{6}
\bibcite{typograph}{7}
\bibcite{jatmiko}{8}
\bibcite{kak.izzunaqi}{9}
\bibcite{proofread.tool}{10}
\bibcite{proofread.buscail}{11}
\bibcite{proofread.anisimov}{12}
\@writefile{toc}{\contentsline {chapter}{Daftar Referensi}{111}{section*.54}}
\bibcite{salah}{13}
\bibcite{postag.mirna.1}{14}
\bibcite{postag.cutting}{15}
\bibcite{postag.hmm}{16}
\bibcite{postag.rule}{17}
\bibcite{postag.mantagged}{18}
\bibcite{postag.morphind}{19}
\bibcite{ner.1}{20}
\bibcite{ner.lev}{21}
\bibcite{ner.tong}{22}
\bibcite{ner.ruli}{23}
\bibcite{puebi}{24}
\bibcite{tbbi}{25}
\@setckpt{pustaka}{
\setcounter{page}{114}
\setcounter{equation}{0}
\setcounter{enumi}{9}
\setcounter{enumii}{23}
\setcounter{enumiii}{0}
\setcounter{enumiv}{25}
\setcounter{footnote}{0}
\setcounter{mpfootnote}{0}
\setcounter{part}{0}
\setcounter{chapter}{6}
\setcounter{section}{2}
\setcounter{subsection}{0}
\setcounter{subsubsection}{0}
\setcounter{paragraph}{0}
\setcounter{subparagraph}{0}
\setcounter{figure}{0}
\setcounter{table}{0}
\setcounter{Item}{135}
\setcounter{Hfootnote}{2}
\setcounter{bookmark@seq@number}{142}
\setcounter{ContinuedFloat}{0}
\setcounter{parentequation}{0}
\setcounter{AM@survey}{0}
\setcounter{float@type}{8}
\setcounter{lstnumber}{13}
\setcounter{section@level}{1}
\setcounter{lstlisting}{0}
}
