\relax 
\providecommand\hyper@newdestlabel[2]{}
\providecommand\HyperFirstAtBeginDocument{\AtBeginDocument}
\HyperFirstAtBeginDocument{\ifx\hyper@anchor\@undefined
\global\let\oldcontentsline\contentsline
\gdef\contentsline#1#2#3#4{\oldcontentsline{#1}{#2}{#3}}
\global\let\oldnewlabel\newlabel
\gdef\newlabel#1#2{\newlabelxx{#1}#2}
\gdef\newlabelxx#1#2#3#4#5#6{\oldnewlabel{#1}{{#2}{#3}}}
\AtEndDocument{\ifx\hyper@anchor\@undefined
\let\contentsline\oldcontentsline
\let\newlabel\oldnewlabel
\fi}
\fi}
\global\let\hyper@last\relax 
\gdef\HyperFirstAtBeginDocument#1{#1}
\providecommand\HyField@AuxAddToFields[1]{}
\providecommand\HyField@AuxAddToCoFields[2]{}
\@input{sampul.aux}
\@input{judul_dalam.aux}
\@writefile{toc}{\contentsline {chapter}{HALAMAN JUDUL}{i}{section*.2}}
\@input{pengesahan.aux}
\@writefile{toc}{\contentsline {chapter}{LEMBAR PERSETUJUAN}{ii}{section*.4}}
\@input{orisinal.aux}
\@writefile{toc}{\contentsline {chapter}{LEMBAR PERNYATAAN ORISINALITAS}{iii}{section*.5}}
\@input{pengesahan_sidang.aux}
\@writefile{toc}{\contentsline {chapter}{LEMBAR PENGESAHAN}{iv}{section*.6}}
\@input{pengantar.aux}
\@writefile{toc}{\contentsline {chapter}{\uppercase {Kata Pengantar}}{v}{section*.7}}
\@input{persetujuan_publikasi.aux}
\@writefile{toc}{\contentsline {chapter}{LEMBAR PERSETUJUAN PUBLIKASI ILMIAH}{vi}{section*.8}}
\@input{abstrak.aux}
\@writefile{toc}{\contentsline {chapter}{ABSTRAK}{vii}{section*.9}}
\@input{abstract.aux}
\@writefile{toc}{\contentsline {chapter}{Daftar Isi}{ix}{section*.10}}
\@writefile{toc}{\contentsline {chapter}{Daftar Gambar}{xiv}{section*.11}}
\@writefile{toc}{\contentsline {chapter}{Daftar Tabel}{xv}{section*.12}}
\@input{bab1.aux}
\@input{bab2.aux}
\@input{bab3.aux}
\@input{bab4.aux}
\@input{bab5.aux}
\@input{bab6.aux}
\@input{pustaka.aux}
\@input{markLampiran.aux}
\@input{lampiran.aux}
